Text analysis with R
…
gutenberg_works(str_detect(author, "Carroll")) #if you only have a partial name

## # A tibble: 34 × 8
##    gutenberg_id title    author gutenberg_author_id language gutenberg_bookshelf
##           <int> <chr>    <chr>                <int> <chr>    <chr>              
##  1           11 "Alice'… Carro…                   7 en       Children's Literat…
##  2           12 "Throug… Carro…                   7 en       Best Books Ever Li…
##  3           13 "The Hu… Carro…                   7 en       Children's Literat…
##  4          620 "Sylvie… Carro…                   7 en       <NA>               
##  5          651 "Phanta… Carro…                   7 en       <NA>               
##  6         4763 "The Ga… Carro…                   7 en       Philosophy         
##  7         5994 "Our Ne… Carro…                1906 en       Psychology         
##  8        16861 "The We… Goodw…                6978 en       <NA>               
##  9        19002 "Alice'… Carro…                   7 en       Children's Literat…
## 10        23160 "Solomo… Carro…               25719 en       Science Fiction    
## # ℹ 24 more rows
## # ℹ 2 more variables: rights <chr>, has_text <lgl>

For more Gutenberg search options: https://ropensci.org/tutorials/gutenbergr_tutorial/

Once you found your books, download with gutenberg_download:

fairytales_raw <- gutenberg_download(c(11, 2591, 1597))

## Determining mirror for Project Gutenberg from https://www.gutenberg.org/robot/harvest

## Using mirror http://aleph.gutenberg.org

fairytales_raw

## # A tibble: 18,420 × 2
##    gutenberg_id text                                
##           <int> <chr>                               
##  1           11 "[Illustration]"                    
##  2           11 ""                                  
##  3           11 ""                                  
##  4           11 ""                                  
##  5           11 ""                                  
##  6           11 "Alice’s Adventures in Wonderland"  
##  7           11 ""                                  
##  8           11 "by Lewis Carroll"                  
##  9           11 ""                                  
## 10           11 "THE MILLENNIUM FULCRUM EDITION 3.0"
## # ℹ 18,410 more rows
…
the unnest_tokens function

Easy to convert from full text to token per row with unnest_tokens()
Syntax: unnest_tokens(df, newcol, oldcol)

unnest_tokens() automatically removes punctuation and converts to
lowercase (unless you set to_lower = FALSE)

by default, tokens are set to words, but you can also use token =
“characters”, “ngrams”, “sentences”, “lines”, “regex”, “paragraphs”

(fairytales_tidy <- fairytales_raw %>% 
  unnest_tokens(word, text))

## # A tibble: 184,542 × 2
##    gutenberg_id                     word        
##    <fct>                            <chr>       
##  1 Alice's Adventures in Wonderland illustration
##  2 Alice's Adventures in Wonderland alice’s     
##  3 Alice's Adventures in Wonderland adventures  
##  4 Alice's Adventures in Wonderland in          
##  5 Alice's Adventures in Wonderland wonderland  
##  6 Alice's Adventures in Wonderland by          
##  7 Alice's Adventures in Wonderland lewis       
##  8 Alice's Adventures in Wonderland carroll     
##  9 Alice's Adventures in Wonderland the         
## 10 Alice's Adventures in Wonderland millennium  
## # ℹ 184,532 more rows

# this keeps the information on which sentence the words came from
fairytales_raw %>% 
  unnest_tokens(sentence, text, token = "sentences") %>% 
  mutate(sent_nr = row_number()) %>% 
  unnest_tokens(word, sentence)

## # A tibble: 184,542 × 3
##    gutenberg_id                     sent_nr word        
##    <fct>                              <int> <chr>       
##  1 Alice's Adventures in Wonderland       1 illustration
##  2 Alice's Adventures in Wonderland       2 alice’s     
##  3 Alice's Adventures in Wonderland       2 adventures  
##  4 Alice's Adventures in Wonderland       2 in          
##  5 Alice's Adventures in Wonderland       2 wonderland  
##  6 Alice's Adventures in Wonderland       3 by          
##  7 Alice's Adventures in Wonderland       3 lewis       
##  8 Alice's Adventures in Wonderland       3 carroll     
##  9 Alice's Adventures in Wonderland       4 the         
## 10 Alice's Adventures in Wonderland       4 millennium  
## # ℹ 184,532 more rows

TRY IT

Use the unnest_tokens() function on the Shakespeare
texts to split them into words. Save the resulting data frame as
shakes_unnest.

(shakes_unnest <- shakes %>% 
  unnest_tokens(word, text))

## # A tibble: 338,557 × 2
##    doc_id         word       
##    <chr>          <chr>      
##  1 As You Like It as         
##  2 As You Like It you        
##  3 As You Like It like       
##  4 As You Like It it         
##  5 As You Like It by         
##  6 As You Like It william    
##  7 As You Like It shakespeare
##  8 As You Like It scene      
##  9 As You Like It oliver's   
## 10 As You Like It house      
## # ℹ 338,547 more rows
…
Removing stop words

Stop words: very common, “meaningless” function words like “the”,
“of” and “to” – not usually important in an analysis (i.e. to find out
that the most common word in two books you are comparing is “the”)

tidytext has a built-in df called stop_words for English

remove these from your dataset with anti_join

We can take a look:

stop_words

## # A tibble: 1,149 × 2
##    word        lexicon
##    <chr>       <chr>  
##  1 a           SMART  
##  2 a's         SMART  
##  3 able        SMART  
##  4 about       SMART  
##  5 above       SMART  
##  6 according   SMART  
##  7 accordingly SMART  
##  8 across      SMART  
##  9 actually    SMART  
## 10 after       SMART  
## # ℹ 1,139 more rows

(fairytales_tidy <- fairytales_tidy %>% 
  anti_join(stop_words))

## Joining with `by = join_by(word)`

## # A tibble: 54,752 × 2
##    gutenberg_id                     word        
##    <fct>                            <chr>       
##  1 Alice's Adventures in Wonderland illustration
##  2 Alice's Adventures in Wonderland alice       
##  3 Alice's Adventures in Wonderland adventures  
##  4 Alice's Adventures in Wonderland wonderland  
##  5 Alice's Adventures in Wonderland lewis       
##  6 Alice's Adventures in Wonderland carroll     
##  7 Alice's Adventures in Wonderland millennium  
##  8 Alice's Adventures in Wonderland fulcrum     
##  9 Alice's Adventures in Wonderland edition     
## 10 Alice's Adventures in Wonderland <NA>        
## # ℹ 54,742 more rows

(shakes_unnest <- shakes_unnest %>% 
  anti_join(stop_words))

## Joining with `by = join_by(word)`

## # A tibble: 146,214 × 2
##    doc_id         word       
##    <chr>          <chr>      
##  1 As You Like It william    
##  2 As You Like It shakespeare
##  3 As You Like It scene      
##  4 As You Like It oliver's   
##  5 As You Like It house      
##  6 As You Like It frederick's
##  7 As You Like It court      
##  8 As You Like It forest     
##  9 As You Like It arden      
## 10 As You Like It act        
## # ℹ 146,204 more rows
…
Easily find frequent words using count()

Data must be in tidy format (one token per line)

sort = TRUE to show the most frequent words first

tidy_books %>% count(word, sort = TRUE)

These are the most frequent words across all books:

fairytales_tidy %>% 
  count(word, sort = TRUE) # R automatically creates a new column, calls it n, and writes the frequencies in it

## # A tibble: 7,407 × 2
##    word       n
##    <chr>  <int>
##  1 king     459
##  2 alice    399
##  3 time     334
##  4 day      278
##  5 looked   254
##  6 tree     243
##  7 home     233
##  8 head     228
##  9 door     223
## 10 mother   215
## # ℹ 7,397 more rows

But it makes more sense to look at frequent words for each of the
three books separately by adding a grouping variable:

fairytales_freq <- fairytales_tidy %>% 
  group_by(gutenberg_id) %>% #including this ensures that the counts are by book and the id column is retained
  count(word, sort=TRUE) %>% 
  ungroup() # to undo the grouping

fairytales_freq

## # A tibble: 11,096 × 3
##    gutenberg_id                     word       n
##    <fct>                            <chr>  <int>
##  1 Alice's Adventures in Wonderland alice    399
##  2 Grimm's Fairytales               king     368
##  3 Grimm's Fairytales               time     207
##  4 Grimm's Fairytales               day      192
##  5 Grimm's Fairytales               father   183
##  6 Grimm's Fairytales               home     180
##  7 Grimm's Fairytales               mother   154
##  8 Grimm's Fairytales               cried    153
##  9 Grimm's Fairytales               wife     152
## 10 Grimm's Fairytales               door     143
## # ℹ 11,086 more rows

filter() can be used to look at subsets of the data,
i.e. one book, all words with freq above 100, etc. Note here that I
don’t save this output!

fairytales_freq %>% 
  filter(gutenberg_id == "Grimm's Fairytales")

## # A tibble: 4,270 × 3
##    gutenberg_id       word       n
##    <fct>              <chr>  <int>
##  1 Grimm's Fairytales king     368
##  2 Grimm's Fairytales time     207
##  3 Grimm's Fairytales day      192
##  4 Grimm's Fairytales father   183
##  5 Grimm's Fairytales home     180
##  6 Grimm's Fairytales mother   154
##  7 Grimm's Fairytales cried    153
##  8 Grimm's Fairytales wife     152
##  9 Grimm's Fairytales door     143
## 10 Grimm's Fairytales fell     130
## # ℹ 4,260 more rows
…
TRY IT

Using the unnested Shakespeare data, count how often each word
occurs. Make sure to have R count separately for each play and save the
resulting table as shakes_freq.

shakes_freq <- shakes_unnest %>% 
  group_by(doc_id) %>% 
  count(word, sort = TRUE) %>% 
  ungroup()

shakes_freq

## # A tibble: 47,613 × 3
##    doc_id              word         n
##    <chr>               <chr>    <int>
##  1 Tempest             <NA>       869
##  2 Julius Caesar       brutus     361
##  3 Hamlet              ham        358
##  4 Othello             iago       341
##  5 Romeo and Juliet    romeo      296
##  6 Shakespeare_Sonnets thy        281
##  7 Romeo and Juliet    thou       276
##  8 As You Like It      rosalind   263
##  9 King Richard III    king       260
## 10 Henry V             king       250
## # ℹ 47,603 more rows
…
## Storing counts in `nn`, as `n` already present in input
## Joining with `by = join_by(word)`
## ℹ Use `name = "new_name"` to pick a new name.

shakes_freq %>% 
  arrange(-pmw)

## # A tibble: 47,601 × 5
##    doc_id              word         n    nn    pmw
##    <chr>               <chr>    <int> <int>  <dbl>
##  1 Julius Caesar       brutus     361 21028 17168.
##  2 Shakespeare_Sonnets thy        281 20833 13488.
##  3 Othello             iago       341 27477 12410.
##  4 Romeo and Juliet    romeo      296 25920 11420.
##  5 As You Like It      rosalind   263 23073 11399.
##  6 Shakespeare_Sonnets thou       235 20833 11280.
##  7 Hamlet              ham        358 32001 11187.
##  8 Julius Caesar       caesar     231 21028 10985.
##  9 Julius Caesar       cassius    225 21028 10700.
## 10 Romeo and Juliet    thou       276 25920 10648.
## # ℹ 47,591 more rows
…
## Storing counts in `nn`, as `n` already present in input
## Joining with `by = join_by(word)`
## ℹ Use `name = "new_name"` to pick a new name.

shakes_perc %>% 
  arrange(-perc)

## # A tibble: 47,601 × 5
##    doc_id              word         n    nn  perc
##    <chr>               <chr>    <int> <int> <dbl>
##  1 Julius Caesar       brutus     361 21028  1.72
##  2 Shakespeare_Sonnets thy        281 20833  1.35
##  3 Othello             iago       341 27477  1.24
##  4 Romeo and Juliet    romeo      296 25920  1.14
##  5 As You Like It      rosalind   263 23073  1.14
##  6 Shakespeare_Sonnets thou       235 20833  1.13
##  7 Hamlet              ham        358 32001  1.12
##  8 Julius Caesar       caesar     231 21028  1.10
##  9 Julius Caesar       cassius    225 21028  1.07
## 10 Romeo and Juliet    thou       276 25920  1.06
## # ℹ 47,591 more rows
…
alice <- fairytales_raw %>% 
  filter(gutenberg_id == "Alice's Adventures in Wonderland") %>% 
  mutate(chapter = cumsum(str_detect(text, regex("^chapter [\\divxlc]", ignore_case = TRUE)))) %>% # if the line starts with "chapter" and is followed by a number or Roman numeral, increase the chapter counter by 1
  select(-gutenberg_id) %>% # remove Gutenberg ID column
  filter(chapter != 0) %>% # remove text before first chapter starts
  mutate(chapter = as_factor(chapter),
         text = str_remove_all(text, "_"))

alice %>% 
  select(text, chapter)

## # A tibble: 3,351 × 2
##    text                                                                  chapter
##    <chr>                                                                 <fct>  
##  1 "CHAPTER I."                                                          1      
##  2 "Down the Rabbit-Hole"                                                1      
##  3 ""                                                                    1      
##  4 ""                                                                    1      
##  5 "Alice was beginning to get very tired of sitting by her sister on t… 1      
##  6 "bank, and of having nothing to do: once or twice she had peeped int… 1      
##  7 "the book her sister was reading, but it had no pictures or"          1      
##  8 "conversations in it, “and what is the use of a book,” thought Alice" 1      
##  9 "“without pictures or conversations?”"                                1      
## 10 ""                                                                    1      
## # ℹ 3,341 more rows
Unnest tokens: n-grams

The unnest_tokens() lets you define what should count as
a token. So far, we’ve used token = "words", but now we
want to move on to multi-word combinations (n-grams) instead of single
words.

An n-gram is a combination of consecutive words of length n. Each
bigram (n = 2), for example, consist of two words. Let’s have a
look:

(alice_bigrams <- alice %>%
   unnest_tokens(bigram, text, token = "ngrams", n = 2))

## # A tibble: 25,170 × 2
##    chapter bigram       
##    <fct>   <chr>        
##  1 1       chapter i    
##  2 1       down the     
##  3 1       the rabbit   
##  4 1       rabbit hole  
##  5 1       <NA>         
##  6 1       <NA>         
##  7 1       alice was    
##  8 1       was beginning
##  9 1       beginning to 
## 10 1       to get       
## # ℹ 25,160 more rows

Each word appears twice now: As the first and as the second word in a
bigram. So the bigrams overlap.

Change the n = argument to control how many words each
n-gram should contain:

alice %>%
  unnest_tokens('4-gram', text, token = "ngrams", n = 4)

## # A tibble: 20,546 × 2
##    chapter `4-gram`              
##    <fct>   <chr>                 
##  1 1       <NA>                  
##  2 1       down the rabbit hole  
##  3 1       <NA>                  
##  4 1       <NA>                  
##  5 1       alice was beginning to
##  6 1       was beginning to get  
##  7 1       beginning to get very 
##  8 1       to get very tired     
##  9 1       get very tired of     
## 10 1       very tired of sitting 
## # ℹ 20,536 more rows

Counting n-grams

We can use commands for analysing and visualising single words to do
the same for n-grams. First, let’s see how often each bigram occurs in
the text:

alice_bigrams %>% 
  count(bigram, sort = TRUE)

## # A tibble: 13,239 × 2
##    bigram         n
##    <chr>      <int>
##  1 <NA>         951
##  2 said the     206
##  3 of the       130
##  4 said alice   112
##  5 in a          96
##  6 in the        76
##  7 and the       75
##  8 it was        73
##  9 to the        68
## 10 the queen     60
## # ℹ 13,229 more rows

The most common bigrams are empty lines, so let’s remove those
first:

alice_bigrams <- alice_bigrams %>% 
    drop_na(bigram)

alice_bigrams %>% 
  count(bigram) %>% 
  arrange(desc(n))

## # A tibble: 13,238 × 2
##    bigram         n
##    <chr>      <int>
##  1 said the     206
##  2 of the       130
##  3 said alice   112
##  4 in a          96
##  5 in the        76
##  6 and the       75
##  7 it was        73
##  8 to the        68
##  9 the queen     60
## 10 as she        59
## # ℹ 13,228 more rows

Removing stopwords from n-grams

A lot of these bigrams contain stopwords such as “the”, “a”, and
“to”. To remove them, we can use the stopword list again:

stop_words

## # A tibble: 1,149 × 2
##    word        lexicon
##    <chr>       <chr>  
##  1 a           SMART  
##  2 a's         SMART  
##  3 able        SMART  
##  4 about       SMART  
##  5 above       SMART  
##  6 according   SMART  
##  7 accordingly SMART  
##  8 across      SMART  
##  9 actually    SMART  
## 10 after       SMART  
## # ℹ 1,139 more rows

However, this list contains single words, so we need to split up the
bigrams with separate():

(alice_bigrams <- alice_bigrams %>% 
  separate(col = bigram,
           into = c("word1", "word2"),
           sep = " ",
           remove = FALSE)) 

## # A tibble: 24,219 × 4
##    chapter bigram        word1     word2    
##    <fct>   <chr>         <chr>     <chr>    
##  1 1       chapter i     chapter   i        
##  2 1       down the      down      the      
##  3 1       the rabbit    the       rabbit   
##  4 1       rabbit hole   rabbit    hole     
##  5 1       alice was     alice     was      
##  6 1       was beginning was       beginning
##  7 1       beginning to  beginning to       
##  8 1       to get        to        get      
##  9 1       get very      get       very     
## 10 1       very tired    very      tired    
## # ℹ 24,209 more rows

We’d like to keep the bigram column, so we need to set
remove to FALSE. Alternatively, we can use
unite() later to glue the single words back together into
bigrams.

Next, we can remove bigrams if either word is in the stopwords
data:

(alice_bigrams_stop <- alice_bigrams %>%
  filter(!word1 %in% stop_words$word & !word2 %in% stop_words$word))

## # A tibble: 1,648 × 4
##    chapter bigram           word1     word2  
##    <fct>   <chr>            <chr>     <chr>  
##  1 1       rabbit hole      rabbit    hole   
##  2 1       hot day          hot       day    
##  3 1       daisy chain      daisy     chain  
##  4 1       white rabbit     white     rabbit 
##  5 1       pink eyes        pink      eyes   
##  6 1       eyes ran         eyes      ran    
##  7 1       waistcoat pocket waistcoat pocket 
##  8 1       alice started    alice     started
##  9 1       waistcoat pocket waistcoat pocket 
## 10 1       rabbit hole      rabbit    hole   
## # ℹ 1,638 more rows

…and count them again:

alice_bigrams_stop %>% 
  count(bigram, sort = TRUE)

## # A tibble: 1,306 × 2
##    bigram             n
##    <chr>          <int>
##  1 mock turtle       50
##  2 march hare        31
##  3 white rabbit      20
##  4 poor alice        11
##  5 alice looked       8
##  6 alice replied      8
##  7 beautiful soup     8
##  8 cried alice        7
##  9 i’m afraid         7
## 10 soo oop            7
## # ℹ 1,296 more rows
…
Filtering n-grams

To find bigrams that contain specific words, we can use
filter():

alice_bigrams_stop %>% 
  filter(word1 == "alice" | word2 == "alice") %>% 
  distinct(bigram)

## # A tibble: 107 × 1
##    bigram         
##    <chr>          
##  1 alice started  
##  2 poor alice     
##  3 alice ventured 
##  4 cried alice    
##  5 waiting alice  
##  6 mouse alice    
##  7 history alice  
##  8 alice hastily  
##  9 passion alice  
## 10 creatures alice
## # ℹ 97 more rows
…
